---
source: src/repo/fs/tests.rs
assertion_line: 21
expression: repo.info().unwrap()
---
"Repo Path:./test_data/tests/test_repo_create\nDB File: db.sqlite3\nCurrent Branch: trunk\nCurrent Commit:\"None\"\nIgnoreList: [1][\"^\\\\.gudr/\"]\nDB Size: 61440\n"
