---
source: src/repo/fs/tests.rs
assertion_line: 127
expression: "repo.commit_list_ancestors(&commit, None).unwrap()"
---
[
    Commit {
        hash: "9049d7b2a4d0968e5235e7833f715a06445fc53bc07bd00b394735b3bcf06a521a4aa2305fc0245bb20f1c59706608a6f7242b44fb2f37e2fff37d9a62039696",
        description: "last commit",
        parent_hash: "7e27ab52aa0789fd4776cb49495d349aedadcdaf2be075f49f32ae33eee4ed5cd974945662977ca7b68caeb211f4782ca06244490dc49af727d813fa9cadfcc2",
        user: "localuser",
        tree_hash: "660f110f31b032667e8a9d9f249eea41c2a8f929701ceb9105f5ca0cd6b00e2184e2728649a6e51a4821c97b1f0a0582e39dfa04842a5d9fc80f8d75980f8b42",
    },
    Commit {
        hash: "7e27ab52aa0789fd4776cb49495d349aedadcdaf2be075f49f32ae33eee4ed5cd974945662977ca7b68caeb211f4782ca06244490dc49af727d813fa9cadfcc2",
        description: "commit 9",
        parent_hash: "5a3df8e00a850aa63bea1512987fe98895baf6568916a41e11b5d37998993cd64c7170c48f5a898aafd5b0266b8dc24c2271dea3afb08c4ec104b87eec1fcf37",
        user: "localuser",
        tree_hash: "5d227dc08ea1a85c75b12aae47a0b87a8ed451f64bf5bbc30ece3ae2aa25d8d5737ec7406b9c48e61c5ba31f10d7b6d3a1a7c26c14a6d61b7a2cb8d7687d3835",
    },
    Commit {
        hash: "5a3df8e00a850aa63bea1512987fe98895baf6568916a41e11b5d37998993cd64c7170c48f5a898aafd5b0266b8dc24c2271dea3afb08c4ec104b87eec1fcf37",
        description: "commit 8",
        parent_hash: "b6e08746839602e3f05cab6baa8dbaf81c276b4ae44a7e95b3771d34f46e87f0bdfba9fdcc63613d1d84966680c6c100ae6db94bc0c3afc7b5213dbb27ad0ae6",
        user: "localuser",
        tree_hash: "76a9a8a66e11cf76320f13178ba8a2345f4fe62275e15be9995c4ed8b4726b7704b48f74651c9f63442deeb01d9839b82911ecfe225f7371f241721810c13296",
    },
    Commit {
        hash: "b6e08746839602e3f05cab6baa8dbaf81c276b4ae44a7e95b3771d34f46e87f0bdfba9fdcc63613d1d84966680c6c100ae6db94bc0c3afc7b5213dbb27ad0ae6",
        description: "commit 7",
        parent_hash: "1b57ecb39cf57a4d7d842ca65c549bbd41a385eb1f96c62abc9af0c6cde0affb51e0ea1c7953e2455a95ce9a20742ae33a4bcb2dc8bb941b9e3a17353a006436",
        user: "localuser",
        tree_hash: "1698bb142de45f79ece92e57f7397c19a58f83498e70c6c3014f3592108a8d0afcb5ebff65b9c595d02286380848f7d9ee373c5887912e232841e4899bb98481",
    },
    Commit {
        hash: "1b57ecb39cf57a4d7d842ca65c549bbd41a385eb1f96c62abc9af0c6cde0affb51e0ea1c7953e2455a95ce9a20742ae33a4bcb2dc8bb941b9e3a17353a006436",
        description: "commit 6",
        parent_hash: "7369369b18cba8806fdcc8155c9e2fc3399e0337acf76ed7555ae0d9554b04f9f81194c5d5ba0ae4cb6581595b73a7f9414898fc13324a8678c1d9c056694d05",
        user: "localuser",
        tree_hash: "9e416c916f3b6b94abe04cf2e1d4c0d03cc2bd3304f485e5f1721421366c00286029778407ac5e9d18c61d1f7abd6b3ace671a903c58e1df7e390aa1ff9b1b65",
    },
    Commit {
        hash: "7369369b18cba8806fdcc8155c9e2fc3399e0337acf76ed7555ae0d9554b04f9f81194c5d5ba0ae4cb6581595b73a7f9414898fc13324a8678c1d9c056694d05",
        description: "commit 5",
        parent_hash: "d426737973077feca43eb6bc2fcc4ec4586ad1691dd48c39ab98e0f1282a71200c525811aeef9209ba2c38ae6cd33fb02046e502f305f0562644f69c166dcb49",
        user: "localuser",
        tree_hash: "78d141025a25cfc53eb177f55c839f9f976018a972a6d1e08d6f33b6a1df4bc8cc655b5b1533dd42b080fdb875f99a1b2bbf35c1f73ee31c3f3abb7369723ebb",
    },
    Commit {
        hash: "d426737973077feca43eb6bc2fcc4ec4586ad1691dd48c39ab98e0f1282a71200c525811aeef9209ba2c38ae6cd33fb02046e502f305f0562644f69c166dcb49",
        description: "commit 4",
        parent_hash: "c7a567c66ee355b3a4fefb974a288873cc8fbbb4ce1685ee392876a7afb124015104c59a4142aa15986dea6c7893df0ebe4fa1a7a959f1c7f3f09d3322db75cf",
        user: "localuser",
        tree_hash: "364591087b369614d643b303d9d888d30260c4c9bf0ed08d161a6921b99ac7b40334cef864104bd6834e328ddabafcda9013df52210cfee3f398bcb1a8ab1eac",
    },
    Commit {
        hash: "c7a567c66ee355b3a4fefb974a288873cc8fbbb4ce1685ee392876a7afb124015104c59a4142aa15986dea6c7893df0ebe4fa1a7a959f1c7f3f09d3322db75cf",
        description: "commit 3",
        parent_hash: "5dc6df49f4ebdb7474fa312b5f7ab164901e2c3f0d557dd32dd5bba611f102d565371c7a509d4088c95390f798b1544140305a505c7bbf0cadd407cc12a134b1",
        user: "localuser",
        tree_hash: "132f4a85a09ad9ed99018e23119e56821cc2be24031cf5155c1d7406f48604e9019e4f612fb05c61b2a05218eeb0611c61f1197ff4d34f820bb777af7f7c676b",
    },
    Commit {
        hash: "5dc6df49f4ebdb7474fa312b5f7ab164901e2c3f0d557dd32dd5bba611f102d565371c7a509d4088c95390f798b1544140305a505c7bbf0cadd407cc12a134b1",
        description: "commit 2",
        parent_hash: "775086b336cadf0045a49caedf097883e291230689d1a6d675772eec9bb5c85bde10ca4f7b5d37f407d3f3f43601f0c1e701729537c00ecff4b12ba111692bea",
        user: "localuser",
        tree_hash: "ad9bf26ee07b6c2033db9b8600724194b4256aadf75fb3494ac601ec6ec532ebb02aa830630aa87e037643999fed1590419bad54ea89d0b2e277aedf0d87b20c",
    },
    Commit {
        hash: "775086b336cadf0045a49caedf097883e291230689d1a6d675772eec9bb5c85bde10ca4f7b5d37f407d3f3f43601f0c1e701729537c00ecff4b12ba111692bea",
        description: "commit 1",
        parent_hash: "28a892ee06d90c6d413afb3d7c3216e6b2bdbec04243854b97fb0fb294cc1185d1381d46dc1b2420609336d2635eb51b70ebe3f4ce55d8fd1bc47f9eaf71e1ab",
        user: "localuser",
        tree_hash: "597bd4644e216d7d491c4c6dbb201ebde100418c458c23538a580d9999e52a38bb91277fdb6e536fa1b224a0beb7cc13d9c3b1fa910c31337afde5fbf4fa2ff2",
    },
    Commit {
        hash: "28a892ee06d90c6d413afb3d7c3216e6b2bdbec04243854b97fb0fb294cc1185d1381d46dc1b2420609336d2635eb51b70ebe3f4ce55d8fd1bc47f9eaf71e1ab",
        description: "commit 0",
        parent_hash: "",
        user: "localuser",
        tree_hash: "e6ed619ed6917f462590c7384f29302988158f31e95a5a290ff1746430e78de66f730be5a040a25c3ba158d128ab587f1b4c4e2945f446944de7d6ea785ad735",
    },
]
