---
source: src/repo/fs/tests.rs
assertion_line: 152
expression: "repo.commit_list_ancestors(&commit, Some(&cutoff_commit)).unwrap()"
---
[
    Commit {
        hash: "34bac1f15b8c73252d2ea2a37f1a5c3040afb0f4d920d0ec1bbb29ea87d472979c8c19ae6b75c9473de126a576dae3ac267b1b8c04c218f88176e5165bfea671",
        description: "last commit",
        parent_hash: "1d245eb633da3a193469981ae69b52f132be804be78021b3568724b394f0dca7d3c20402e9c7e1686a70118eb9e5b51ca5a673d92c44db42d42d24642f05ab3b",
        user: "localuser",
        tree_hash: "660f110f31b032667e8a9d9f249eea41c2a8f929701ceb9105f5ca0cd6b00e2184e2728649a6e51a4821c97b1f0a0582e39dfa04842a5d9fc80f8d75980f8b42",
    },
    Commit {
        hash: "1d245eb633da3a193469981ae69b52f132be804be78021b3568724b394f0dca7d3c20402e9c7e1686a70118eb9e5b51ca5a673d92c44db42d42d24642f05ab3b",
        description: "commit 9",
        parent_hash: "a63c175a611cb5fc8597b18a229a3414f2a06f76bbc2eb009bbae831417466bf01288422de28e580c39b25c7057663e350617ed5a74f5ea338b3ad32890d3730",
        user: "localuser",
        tree_hash: "5d227dc08ea1a85c75b12aae47a0b87a8ed451f64bf5bbc30ece3ae2aa25d8d5737ec7406b9c48e61c5ba31f10d7b6d3a1a7c26c14a6d61b7a2cb8d7687d3835",
    },
    Commit {
        hash: "a63c175a611cb5fc8597b18a229a3414f2a06f76bbc2eb009bbae831417466bf01288422de28e580c39b25c7057663e350617ed5a74f5ea338b3ad32890d3730",
        description: "commit 8",
        parent_hash: "856a95487312d0692a536771d9535b11c85f7a1f62c129008bbfb3c678c244ce9b8efdcc4ed5e5c56c13c1a6e6653071a679d77728f3ae30fea3d96dfa25331a",
        user: "localuser",
        tree_hash: "76a9a8a66e11cf76320f13178ba8a2345f4fe62275e15be9995c4ed8b4726b7704b48f74651c9f63442deeb01d9839b82911ecfe225f7371f241721810c13296",
    },
    Commit {
        hash: "856a95487312d0692a536771d9535b11c85f7a1f62c129008bbfb3c678c244ce9b8efdcc4ed5e5c56c13c1a6e6653071a679d77728f3ae30fea3d96dfa25331a",
        description: "commit 7",
        parent_hash: "5f95937255201b34bf1551ae4ef8ffd6eaf9a73299b795617bb46f3e82dca236530278182d9b704d4038b9ef31d44f4d04446b6096fba79b38cfe28580ed2f46",
        user: "localuser",
        tree_hash: "1698bb142de45f79ece92e57f7397c19a58f83498e70c6c3014f3592108a8d0afcb5ebff65b9c595d02286380848f7d9ee373c5887912e232841e4899bb98481",
    },
    Commit {
        hash: "5f95937255201b34bf1551ae4ef8ffd6eaf9a73299b795617bb46f3e82dca236530278182d9b704d4038b9ef31d44f4d04446b6096fba79b38cfe28580ed2f46",
        description: "commit 6",
        parent_hash: "9760bfb117b4615ea020bfb00d0a179f48867664b2437023450ecc53dcb9aa1dca3c96dab35aab97f9e97ca1714bcf54772490cfa0d28d07015fe50911095b60",
        user: "localuser",
        tree_hash: "9e416c916f3b6b94abe04cf2e1d4c0d03cc2bd3304f485e5f1721421366c00286029778407ac5e9d18c61d1f7abd6b3ace671a903c58e1df7e390aa1ff9b1b65",
    },
]
