---
source: src/lib.rs
assertion_line: 401
expression: "HandleDiff {\n            ref_name1: &commit_hash2,\n            ref_name2: &commit_hash3,\n        }.handle_command().unwrap()"
---
"~ \n~ subdir\n~ subdir/some_file.txt\n\n--- original\n+++ modified\n@@ -1 +1 @@\n-some_file_contents\n+modified_file_contents\n- subdir/some_file1.txt\n+ subdir/some_file2.txt\n"
