---
source: src/lib.rs
assertion_line: 476
expression: "HandleDiff {\n            ref_name1: &commit1,\n            ref_name2: &String::from(\"trunk\"),\n        }.handle_command().unwrap()"
---
"~ \n+ some_file.txt\n"
