---
source: src/lib.rs
assertion_line: 512
expression: "HandleDiff {\n            ref_name1: &commit1,\n            ref_name2: &commit2[..6].to_owned(),\n        }.handle_command().unwrap()"
---
"~ \n+ some_file.txt\n"
