---
source: src/lib.rs
assertion_line: 577
expression: "HandleCheckout {\n            ref_name: &String::from(consts::DEFAULT_BRANCH),\n        }.handle_command().unwrap()"
---
"Wrote file 'some_file.txt'"
