---
source: src/lib.rs
assertion_line: 218
expression: "HandleCreateCommit {\n            tree_hash: &tree_hash,\n            description: &\"commit description\".to_owned(),\n            parent: &\"\".to_owned(),\n        }.handle_command().unwrap()"
---
"a931494875c35cc6ca24a771d159d72d725e7c5f209e77cbb7ef9146a325775aecbfd2ee01a8acfb460281b7af28a7ae26a019119af40836f6b95c5f99ce938a"
