---
source: src/lib.rs
assertion_line: 674
expression: "HandleStatus { with_diff: true }.handle_command().unwrap()"
---
"~ some_file2.txt\n--- original\n+++ modified\n@@ -1 +1 @@\n-some contents\n+some other contents\n\n+ some_file3.txt"
